{
  "type": "immersiveengineering:cloche",
  "results": [
    {
      "item": "mysticalagriculture:invar_essence"
    }
  ],
  "input": {
    "item": "mysticalagriculture:invar_seeds"
  },
  "soil": {
    "item": "minecraft:dirt"
  },
  "time": 1000,
  "render": {
    "type": "crop",
    "block": "minecraft:wheat"
  }
}
